{"data":[{"id":2541874,"date":{"value":"2020-05-29T00:00:00","day":29,"dayName":"Fr","month":5,"monthName":"Mai","year":2020},"performanceTime":null,"eventName":"Steve Aoki @ Sputnik Festival, Pouch","eventUrl":null,"status":{"id":7831,"phase":"D"},"production":null,"artist":{"id":645366,"name":"Steve Aoki","url":null},"venue":{"name":"Sputnik Festival","street":"Halbinsel Pouch","city":"Pouch","postalCode":"06774","state":null,"countryCode":"DE","country":"Deutschland","phone":null,"url":null,"latLng":null},"tickets":{"url":"https://www.sputnik-springbreak-shop.de/tickets","onSaleDate":null,"soldOut":false}},{"id":2630071,"date":{"value":"2020-06-04T00:00:00","day":4,"dayName":"Do","month":6,"monthName":"Jun","year":2020},"performanceTime":null,"eventName":"Daughters of Reykjavík @ Campus Spring Break, Bochum","eventUrl":null,"status":{"id":7831,"phase":"D"},"production":null,"artist":{"id":1204167,"name":"Daughters of Reykjavík","url":null},"venue":{"name":"Campus Spring Break","street":"Nordwiese an der Jahrhunderthalle","city":"Bochum","postalCode":null,"state":null,"countryCode":"DE","country":"Deutschland","phone":null,"url":null,"latLng":[51.4811,7.19901]},"tickets":{"url":"https://www.eventim.de/artist/campus-spring-break/?affiliate=EVE&fbclid=IwAR0G3aZWWFi3KqmkSWg4GEWBRFXcZkZ9a_66zA6-rPW0NBc0IcWhIsvZogU","onSaleDate":null,"soldOut":false}},{"id":2602076,"date":{"value":"2020-07-11T00:00:00","day":11,"dayName":"Sa","month":7,"monthName":"Jul","year":2020},"performanceTime":null,"eventName":"Netsky @ Airbeat One","eventUrl":null,"status":{"id":7831,"phase":"D"},"production":null,"artist":{"id":669030,"name":"Netsky","url":null},"venue":{"name":"Airbeat One","street":"Segelflugplatz","city":"Neustadt-Glewe","postalCode":"19306","state":null,"countryCode":"DE","country":"Deutschland","phone":null,"url":null,"latLng":[53.361,11.6167]},"tickets":{"url":"https://bit.ly/2R1nDdG","onSaleDate":null,"soldOut":false}},{"id":2652116,"date":{"value":"2020-07-17T00:00:00","day":17,"dayName":"Fr","month":7,"monthName":"Jul","year":2020},"performanceTime":null,"eventName":"Altin Gün @ Junkyard, Dortmund","eventUrl":null,"status":{"id":7831,"phase":"D"},"production":null,"artist":{"id":863489,"name":"Altin Gün","url":null},"venue":{"name":"JunkYard","street":"Schlägelstraße 57","city":"Dortmund","postalCode":"44145","state":"Nordrhein-Westfalen","countryCode":"DE","country":"Deutschland","phone":null,"url":"http://junkyard.ruhr/","latLng":[51.5331,7.47253]},"tickets":{"url":null,"onSaleDate":null,"soldOut":false}},{"id":2609436,"date":{"value":"2020-07-19T00:00:00","day":19,"dayName":"So","month":7,"monthName":"Jul","year":2020},"performanceTime":null,"eventName":"EKALI @ Parookaville","eventUrl":null,"status":{"id":7831,"phase":"D"},"production":null,"artist":{"id":653848,"name":"Ekali","url":null},"venue":{"name":"Parookaville","street":"Flughafen Ring 293","city":"Weeze","postalCode":"47652","state":null,"countryCode":"DE","country":"Deutschland","phone":null,"url":null,"latLng":[51.5954,6.15741]},"tickets":{"url":null,"onSaleDate":null,"soldOut":false}},{"id":2558294,"date":{"value":"2020-07-19T00:00:00","day":19,"dayName":"So","month":7,"monthName":"Jul","year":2020},"performanceTime":null,"eventName":"Steve Aoki @ Parookaville","eventUrl":null,"status":{"id":7831,"phase":"D"},"production":null,"artist":{"id":645366,"name":"Steve Aoki","url":null},"venue":{"name":"Parookaville","street":"Flughafen Ring 293","city":"Weeze","postalCode":"47652","state":null,"countryCode":"DE","country":"Deutschland","phone":null,"url":null,"latLng":[51.5954,6.15741]},"tickets":{"url":null,"onSaleDate":null,"soldOut":false}},{"id":2597544,"date":{"value":"2020-07-24T00:00:00","day":24,"dayName":"Fr","month":7,"monthName":"Jul","year":2020},"performanceTime":null,"eventName":"JAUZ B2B HOLY GOOF @ Open Beatz, Herzogenaurach","eventUrl":null,"status":{"id":7831,"phase":"D"},"production":null,"artist":{"id":1162404,"name":"JAUZ B2B HOLY GOOF","url":null},"venue":{"name":"Open Beatz Festival","street":"Poppenhofer Weiher","city":"Herzogenaurach","postalCode":"91074","state":null,"countryCode":"DE","country":"Deutschland","phone":null,"url":null,"latLng":[49.5683,10.8829]},"tickets":{"url":null,"onSaleDate":null,"soldOut":false}},{"id":2640531,"date":{"value":"2020-07-30T00:00:00","day":30,"dayName":"Do","month":7,"monthName":"Jul","year":2020},"performanceTime":null,"eventName":"Islandman @ Appletree Garden Festival","eventUrl":null,"status":{"id":7831,"phase":"D"},"production":null,"artist":{"id":1102797,"name":"Islandman","url":null},"venue":{"name":"Appletree Festival","street":"Lüdersbusch 2","city":"Diepholz","postalCode":"49356","state":null,"countryCode":"DE","country":"Deutschland","phone":null,"url":null,"latLng":[52.5998,8.38836]},"tickets":{"url":null,"onSaleDate":null,"soldOut":false}}],"pagination":{"total":82,"page":1,"perPage":8,"maxPerPage":100,"pageCount":11,"hasResults":true}}